transactionId, productId, transactionAmount,transactionDatetime
1, 10, 1000.0, 2019-01-31 10:10:10
2, 10, 1000.0, 2019-01-31 10:15:10
3, 20, 2000.0, 2019-01-31 10:15:20
4, 10, 1000.0, 2018-10-01 10:10:10
5, 30, 3000.0, 2018-10-01 10:20:10
6, 20, 2000.0, 2018-10-01 10:15:30